Introduction to R Workshop - Tidyverse
…
#Otherwise you can read from a URL
surveys <- read_csv("http://bifx-core3.bio.ed.ac.uk/training/R_dplyr_and_ggplot2/data/surveys_complete.csv")

 Discussion

Look at the options available in the read_csv and compare this with the read.table function we saw earlier.

What other readr functions can you find?

This dataset contains observations from a field survey of different organisms at different sites (plots). Let’s inspect the data.

#Type an R objects name to print the contents
surveys

# A tibble: 30,463 × 13
   record_id month   day  year plot_id species_id sex   hindfoot_length weight
       <dbl> <dbl> <dbl> <dbl>   <dbl> <chr>      <chr>           <dbl>  <dbl>
 1       845     5     6  1978       2 NL         M                  32    204
 2      1164     8     5  1978       2 NL         M                  34    199
 3      1261     9     4  1978       2 NL         M                  32    197
 4      1756     4    29  1979       2 NL         M                  33    166
 5      1818     5    30  1979       2 NL         M                  32    184
 6      1882     7     4  1979       2 NL         M                  32    206
 7      2133    10    25  1979       2 NL         F                  33    274
 8      2184    11    17  1979       2 NL         F                  30    186
 9      2406     1    16  1980       2 NL         F                  33    184
10      3000     5    18  1980       2 NL         F                  31     87
# ℹ 30,453 more rows
# ℹ 4 more variables: genus <chr>, species <chr>, taxa <chr>, plot_type <chr>
…
